<svg width="25" height="25" viewBox="0 0 25 25" fill="none" xmlns="http://www.w3.org/2000/svg">
<path d="M21.0938 12.5H3.90625" stroke="#061737" stroke-width="2" stroke-linecap="round" stroke-linejoin="round"/>
<path d="M10.9375 5.46875L3.90625 12.5L10.9375 19.5312" stroke="#061737" stroke-width="2" stroke-linecap="round" stroke-linejoin="round"/>
</svg>
